…
    rbind(cdk2,
          p38a,
          jak2,
          cats,
          bace
          )

    ## # A tibble: 802 × 8
    ##    ligand_id ligand                      affin…¹ pdb   gene  unit  metric method
    ##    <chr>     <chr>                       <chr>   <chr> <chr> <chr> <chr>  <chr> 
    ##  1 CS1       Brc1ccc(cc1)C(=O)Nc1n[nH]c… 33200   4EK4  CDK2  nM    kd     biola…
    ##  2 CS2       O=C(Nc1n[nH]c(c1)C1CC1)CCC… 1840    <NA>  CDK2  nM    kd     biola…
    ##  3 CS3       O=C(Nc1n[nH]c(c1)C1CC1)c1c… 808     4EK5  CDK2  nM    kd     biola…
    ##  4 CS4       O=C(Nc1n[nH]c(c1)C1CC1)c1c… 21200   4FKG  CDK2  nM    kd     biola…
    ##  5 CS9       FC(F)(F)Oc1ccc(cc1)CC(=O)N… 58300   4FKI  CDK2  nM    kd     biola…
    ##  6 CS10      s1cccc1-c1ccc(cc1)CC(=O)Nc… 910     4EK6  CDK2  nM    kd     biola…
    ##  7 CS11      O(CC[NH+]1CCCC1)c1ccc(cc1)… 280     4FJK  CDK2  nM    kd     biola…
    ##  8 CS12      s1c(-c2nc(ncc2)N)c(nc1C)C … ND      4FKL  CDK2  nM    kd     biola…
    ##  9 CS13      Cc1c(c2ccnc(Nc3ccc(Cl)cc3)… 965     <NA>  CDK2  nM    kd     biola…
    ## 10 CS14      FC(C=C1)=CC=C1NC2=NC=CC(C3… 1430    <NA>  CDK2  nM    kd     biola…
    ## # … with 792 more rows, and abbreviated variable name ¹​affinity
…
